R aplicado a empreedendorismo
…
---
# Função filter 

```r
basePaises %>% 
  filter(continent == "Asia")
```

```
## # A tibble: 396 x 6
##    country     continent  year lifeExp      pop gdpPercap
##    <fct>       <fct>     <int>   <dbl>    <int>     <dbl>
##  1 Afghanistan Asia       1952    28.8  8425333      779.
##  2 Afghanistan Asia       1957    30.3  9240934      821.
##  3 Afghanistan Asia       1962    32.0 10267083      853.
##  4 Afghanistan Asia       1967    34.0 11537966      836.
##  5 Afghanistan Asia       1972    36.1 13079460      740.
##  6 Afghanistan Asia       1977    38.4 14880372      786.
##  7 Afghanistan Asia       1982    39.9 12881816      978.
##  8 Afghanistan Asia       1987    40.8 13867957      852.
##  9 Afghanistan Asia       1992    41.7 16317921      649.
## 10 Afghanistan Asia       1997    41.8 22227415      635.
## # ... with 386 more rows
```

---
# Função filter 

```r
basePaises %>%
  filter(continent == "Americas" & year>1990)
```

```
## # A tibble: 100 x 6
##    country   continent  year lifeExp       pop gdpPercap
##    <fct>     <fct>     <int>   <dbl>     <int>     <dbl>
##  1 Argentina Americas   1992    71.9  33958947     9308.
##  2 Argentina Americas   1997    73.3  36203463    10967.
##  3 Argentina Americas   2002    74.3  38331121     8798.
##  4 Argentina Americas   2007    75.3  40301927    12779.
##  5 Bolivia   Americas   1992    60.0   6893451     2962.
##  6 Bolivia   Americas   1997    62.0   7693188     3326.
##  7 Bolivia   Americas   2002    63.9   8445134     3413.
##  8 Bolivia   Americas   2007    65.6   9119152     3822.
##  9 Brazil    Americas   1992    67.1 155975974     6950.
## 10 Brazil    Americas   1997    69.4 168546719     7958.
## # ... with 90 more rows
```
---
# Função filter 

```r
# != diferente 
basePaises %>%
  filter(continent != "Oceania")
```

```
## # A tibble: 1,680 x 6
##    country     continent  year lifeExp      pop gdpPercap
##    <fct>       <fct>     <int>   <dbl>    <int>     <dbl>
##  1 Afghanistan Asia       1952    28.8  8425333      779.
##  2 Afghanistan Asia       1957    30.3  9240934      821.
##  3 Afghanistan Asia       1962    32.0 10267083      853.
##  4 Afghanistan Asia       1967    34.0 11537966      836.
##  5 Afghanistan Asia       1972    36.1 13079460      740.
##  6 Afghanistan Asia       1977    38.4 14880372      786.
##  7 Afghanistan Asia       1982    39.9 12881816      978.
##  8 Afghanistan Asia       1987    40.8 13867957      852.
##  9 Afghanistan Asia       1992    41.7 16317921      649.
## 10 Afghanistan Asia       1997    41.8 22227415      635.
## # ... with 1,670 more rows
```
…
---
# Função select

```r
basePaises %>%
  select(year,country,gdpPercap)
```

```
## # A tibble: 1,704 x 3
##     year country     gdpPercap
##    <int> <fct>           <dbl>
##  1  1952 Afghanistan      779.
##  2  1957 Afghanistan      821.
##  3  1962 Afghanistan      853.
##  4  1967 Afghanistan      836.
##  5  1972 Afghanistan      740.
##  6  1977 Afghanistan      786.
##  7  1982 Afghanistan      978.
##  8  1987 Afghanistan      852.
##  9  1992 Afghanistan      649.
## 10  1997 Afghanistan      635.
## # ... with 1,694 more rows
```

---
# Função select

```r
basePaises%>%
  select(-lifeExp)
```

```
## # A tibble: 1,704 x 5
##    country     continent  year      pop gdpPercap
##    <fct>       <fct>     <int>    <int>     <dbl>
##  1 Afghanistan Asia       1952  8425333      779.
##  2 Afghanistan Asia       1957  9240934      821.
##  3 Afghanistan Asia       1962 10267083      853.
##  4 Afghanistan Asia       1967 11537966      836.
##  5 Afghanistan Asia       1972 13079460      740.
##  6 Afghanistan Asia       1977 14880372      786.
##  7 Afghanistan Asia       1982 12881816      978.
##  8 Afghanistan Asia       1987 13867957      852.
##  9 Afghanistan Asia       1992 16317921      649.
## 10 Afghanistan Asia       1997 22227415      635.
## # ... with 1,694 more rows
```

---
# Função select + filter

```r
basePaises %>%
  filter(continent == "Americas" & year>1990) %>%
  select(year,country,gdpPercap)
```

```
## # A tibble: 100 x 3
##     year country   gdpPercap
##    <int> <fct>         <dbl>
##  1  1992 Argentina     9308.
##  2  1997 Argentina    10967.
##  3  2002 Argentina     8798.
##  4  2007 Argentina    12779.
##  5  1992 Bolivia       2962.
##  6  1997 Bolivia       3326.
##  7  2002 Bolivia       3413.
##  8  2007 Bolivia       3822.
##  9  1992 Brazil        6950.
## 10  1997 Brazil        7958.
## # ... with 90 more rows
```
…
---

# Funções group_by e summarize 

```r
basePaises %>%
  group_by(country) %>%
  summarize(meanLE=mean(lifeExp),meanPop=mean(pop),meanGpc=mean(gdpPercap))
```

```
## # A tibble: 142 x 4
##    country     meanLE   meanPop meanGpc
##    <fct>        <dbl>     <dbl>   <dbl>
##  1 Afghanistan   37.5 15823715.    803.
##  2 Albania       68.4  2580249.   3255.
##  3 Algeria       59.0 19875406.   4426.
##  4 Angola        37.9  7309390.   3607.
##  5 Argentina     69.1 28602240.   8956.
##  6 Australia     74.7 14649312.  19981.
##  7 Austria       73.1  7583298.  20412.
##  8 Bahrain       65.6   373913.  18078.
##  9 Bangladesh    49.8 90755395.    818.
## 10 Belgium       73.6  9725119.  19901.
## # ... with 132 more rows
```
…
# Funções group_by e summarize 

```r
basePaises %>%
  group_by(continent,year) %>%
  summarize(meanLE=mean(lifeExp),meanPop=mean(pop),meanGpc=mean(gdpPercap))
```

```
## `summarise()` has grouped output by 'continent'. You can override using the `.groups` argument.
```

```
## # A tibble: 60 x 5
## # Groups:   continent [5]
##    continent  year meanLE   meanPop meanGpc
##    <fct>     <int>  <dbl>     <dbl>   <dbl>
##  1 Africa     1952   39.1  4570010.   1253.
##  2 Africa     1957   41.3  5093033.   1385.
##  3 Africa     1962   43.3  5702247.   1598.
##  4 Africa     1967   45.3  6447875.   2050.
##  5 Africa     1972   47.5  7305376.   2340.
##  6 Africa     1977   49.6  8328097.   2586.
##  7 Africa     1982   51.6  9602857.   2482.
##  8 Africa     1987   53.3 11054502.   2283.
##  9 Africa     1992   53.6 12674645.   2282.
## 10 Africa     1997   53.6 14304480.   2379.
## # ... with 50 more rows
```
…
